1 10 20
100 200 125
201 210 89
900 1000 174
29538 154885 375
28481 503879 449
147176 172438 383
22288 843434 525
251492 556013 470
817737 951050 525
127646 820415 509
410791 545385 470
923693 948889 507
791025 954083 525
59337 953963 525
295685 898121 525
27322 304527 443
313100 646811 509
102375 458748 449
125077 804160 509
677056 954281 525
412 324506 443
347567 935170 525
597184 664099 509
233084 896525 525
262663 714525 509
448456 744552 509
62131 246040 443
738874 794944 468
379977 831073 509
345928 915482 525
226392 360330 443
537480 837987 525
148469 216965 386
360176 621465 470
822326 899478 525
549316 586543 434
57960 993054 525
141751 248884 443
245968 966233 525
254374 898703 525
380195 658421 509
17138 396928 443
33308 969473 525
390779 414871 449
519518 856652 525
227556 618487 470
33178 990718 525
26098 273428 443
44565 154523 375
344222 609857 470
513503 591341 452
72695 596808 470
252881 843872 525
252954 609252 470
576067 588471 434
532431 560080 452
546112 861136 525
221429 229679 368
471212 639104 509
28168 756665 509
196129 308612 443
64229 268787 443
264338 792895 509
174369 410021 449
249031 438069 449
262172 304435 407
263437 312805 407
97226 625385 470
567122 681023 509
793491 932935 525
486414 575768 470
267048 273459 407
454917 501386 444
38113 163225 383
383130 920814 525
351495 803703 509
39364 924820 525
110003 700870 509
425250 937855 525
245954 601957 470
287144 333816 389
684694 965616 525
340962 574404 470
83739 995874 525
240700 763209 509
109179 576444 470
55927 426156 449
756377 853087 525
149108 539010 470
94200 727917 509
188937 635974 509
44034 933330 525
44929 153884 375
145877 391681 443
214066 845065 525
499325 520051 470
2758 972832 525
48920 303216 443
75721 518751 470
397213 910186 525
194176 555116 470
244395 745407 509
525080 986952 525
40622 63764 340
13958 439206 449
139163 900871 525
112653 491994 449
86405 178501 383
236959 335576 407
614446 723135 509
402527 998079 525
192217 648555 509
3894 744403 509
134866 641526 509
714302 878362 525
425821 759567 509
198163 487271 449
436417 858033 525
303693 832751 509
209716 498761 449
837968 929549 476
15157 174588 383
46747 223726 386
789624 977059 525
448646 689597 509
473001 481212 413
333467 540412 470
447632 993641 525
404238 709188 509
70637 526083 470
524923 593298 452
715704 848631 525
108878 418917 449
592545 725084 509
427156 931923 525
232129 301435 407
138337 883507 525
375938 903312 525
34973 950689 525
663764 794488 504
33655 696776 509
116351 671233 509
457031 724479 509
367696 555386 470
309439 928970 525
224577 973056 525
198182 554216 470
302503 899531 525
301852 763077 509
147113 461025 449
117927 765718 509
386938 674192 509
34500 400949 443
167849 502125 449
185813 607226 470
265736 941207 525
124439 293843 443
59267 730092 509
472 756663 509
563078 846357 525
330370 971641 525
545746 855010 525
204966 662306 509
617806 904198 525
58712 492220 449
96689 468264 449
691073 700649 442
110111 121381 349
518699 794327 509
554948 604410 434
565815 978883 525
436803 858561 525
614148 815982 509
789049 974648 525
151699 715237 509
511213 799165 509
349563 739241 509
798829 939563 525
220099 723791 509
612015 848712 525
547499 789963 509
239470 305398 407
624942 982853 525
238799 502807 449
143643 425014 449
8251 462980 449
438563 466426 444
242501 250150 350
428553 621684 470
4010 507403 449
655155 697465 442
836220 995008 525
905689 984349 507
263659 306253 407
8739 199008 383
368865 450196 449
91017 931604 525
68893 576028 470
371707 540171 470
252745 621797 470
242355 705786 509
197232 598374 470
275860 492703 449
199076 409576 443
241171 945296 525
495387 750035 509
489681 568690 470
238800 797877 509
355598 538831 470
867957 986695 507
108727 303904 443
347778 628065 509
562528 758676 509
717183 957821 525
177863 496864 449
25028 32819 308
97745 379368 443
771352 897923 525
138571 535273 470
1903 473192 449
788761 832823 468
391068 442843 449
303211 557538 470
172470 669094 509
124168 945481 525
122731 365234 443
349169 792202 509
332598 689374 509
46579 487327 449
246691 405129 441
121925 493564 449
246480 635921 509
300252 597775 470
165829 402035 443
233665 397204 441
749381 838546 525
81709 286341 443
143688 438688 449
188143 822988 509
826601 924666 525
126588 898457 525
339283 657596 509
93036 262298 443
446853 593133 470
156587 512738 470
557653 875510 525
21407 471581 449
298304 549605 470
226713 619966 470
130866 744078 509
245853 623553 470
693208 807705 504
60383 321013 443
